Convert a Coda object to a tibble with specified parameter transformations — coda_to_tibble • IASDT.R
…
    Author

    Ahmed El-Gabbas

    Examples

ecokit::load_packages(Hmsc, coda, dplyr)

coda_object <- Hmsc::convertToCodaObject(Hmsc::TD$m)
IASDT.R::coda_to_tibble(
   coda_object = coda_object$Alpha[[1]], posterior_type = "Alpha")
#> # A tibble: 400 × 6
#>    Alpha           AlphaNum Factor  Chain  Iter Value
#>    <fct>           <fct>    <fct>   <fct> <int> <dbl>
#>  1 Alpha1[factor1] Alpha1   factor1 1        51     0
#>  2 Alpha1[factor1] Alpha1   factor1 1        52     0
#>  3 Alpha1[factor1] Alpha1   factor1 1        53     0
#>  4 Alpha1[factor1] Alpha1   factor1 1        54     0
#>  5 Alpha1[factor1] Alpha1   factor1 1        55     0
#>  6 Alpha1[factor1] Alpha1   factor1 1        56     0
#>  7 Alpha1[factor1] Alpha1   factor1 1        57     0
#>  8 Alpha1[factor1] Alpha1   factor1 1        58     0
#>  9 Alpha1[factor1] Alpha1   factor1 1        59     0
#> 10 Alpha1[factor1] Alpha1   factor1 1        60     0
#> # ℹ 390 more rows
…
